{
  "LOGSTASH_ID": "unit_test_id1",
  "REFERER": "https://blog.zoom.us/",
  "ACTIVITY_IP": "1.0.3.255",
  "ACTIVITY_TYPE_ID": "31",
  "CID": "100",
  "VERSION": "2.0",
  "REF_PARAM": "www.techtarget.com/homepageURL_1",
  "USER_AGENT": "Mozilla/5.0 (X11; CrOS aarch64 13421.102.0) AppleWebKit/537.36 (KHTML, like Gecko) Chrome/86.0.4240.199 Safari/537.36",
  "ACTIVITY_DATE": "2021-02-02",
  "ACTIVITY_MILLIS": 1612292422001,
  "DOMAIN": "chinatelecom.com.cn",
  "EU_ALLOWED": true,
  "IS_ISP": false,
  "PAGE_TYPE": "blog",
  "PAGE_TITLE": "page_title_unit_test1",
  "PAGE_TEXT_COUNT": 5005,
  "PAGE_CONTENT": "TBD",
  "REGION_CD": "CN",
  "event_id": 12345678,
  "is_eu_allowed": false,
  "DATE_CREATED": "2021-03-12 20:32:19",
  "DATE_MODIFIED": "2021-03-12 20:32:19",
  "ERRORS": [
    {"ERROR":  "no_page_title", "DESCRIPTION": "Some Error"},
    {"ERROR":  "no_page_text"}
  ]
}
