{
  "attributes": {
        "REVISION": "manual-test",
        "SHARD": 0,
        "SHARD_BATCH_ID": 1778146048,
        "RECORDS": [
            {
              "city_name": "Greytown",
              "continent_code": "AF",
              "continent_name": "Africa",
              "country_iso_code": "ZA",
              "country_name": "South Africa",
              "end_ip_int": 1778146303,
              "geoname_id": "1000006",
              "is_anonymous_proxy": "0",
              "is_in_european_union": "0",
              "is_satellite_provider": "0",
              "locale_code": "en",
              "metro_code": "",
              "postal_code": "3250",
              "registered_country_geoname_id": "953987",
              "represented_country_geoname_id": "",
              "start_ip_int": 1778146048,
              "subdivision_1_iso_code": "NL",
              "subdivision_1_name": "KwaZulu-Natal",
              "subdivision_2_iso_code": "",
              "subdivision_2_name": "",
              "time_zone": "Africa/Johannesburg"
            },
            {
              "city_name": "",
              "continent_code": "AS",
              "continent_name": "Asia",
              "country_iso_code": "CN",
              "country_name": "China",
              "end_ip_int": 16781311,
              "geoname_id": "1809935",
              "is_anonymous_proxy": "0",
              "is_in_european_union": "0",
              "is_satellite_provider": "0",
              "locale_code": "en",
              "metro_code": "",
              "postal_code": "",
              "registered_country_geoname_id": "1814991",
              "represented_country_geoname_id": "",
              "start_ip_int": 16779264,
              "subdivision_1_iso_code": "GD",
              "subdivision_1_name": "Guangdong",
              "subdivision_2_iso_code": "",
              "subdivision_2_name": "",
              "time_zone": "Asia/Shanghai"
            }
        ]
  }
}