{
  "LOGSTASH_ID": "d0635b36-d2c5-46f2-9631-7d94cb80e8ec",
  "REFERER": "https://blog.zoom.us/",
  "ACTIVITY_IP": "1.0.3.255",
  "ACTIVITY_TYPE_ID": "31",
  "CID": "17872382",
  "VERSION": "2.0",
  "REF_PARAM": "https://blog.zoom.us/&r=1606771044902",
  "USER_AGENT": "Mozilla/5.0 (X11; CrOS aarch64 13421.102.0) AppleWebKit/537.36 (KHTML, like Gecko) Chrome/86.0.4240.199 Safari/537.36",
  "ACTIVITY_DATE": "2021-02-02",
  "ACTIVITY_MILLIS": 1612292422001,
  "INT_IP": 16778239,
  "DOMAIN": "chinatelecom.com.cn",
  "EU_ALLOWED": true,
  "IS_ISP": false,
  "PAGE_TYPE": "blog",
  "PAGE_TITLE": "Our awesome homepage",
  "PAGE_TEXT_COUNT": 1010,
  "REGION_CD": "CN",
  "event_id": 12345678,
  "DATE_CREATED": "2021-03-12 20:32:19",
  "DATE_MODIFIED": "2021-03-12 20:32:19",
  "STATUS": "WEBSCRAPING_CACHE_HIT"
}
