test_override_cid1
test_override_cid2
1238076
1259516
16801775
1299211
17441790
16787034
4982495
16648054
16607667
17504829
1266231
17984077
1231042
17337804
4834691
1278810
18024533
2334982
14486842
18028358
1233036
1274746
18051252
1265599
1251218
1249102
1272447
16537611
1269744
17063572
16554798
1246490
16704886
5301152
17210929
1324593
4639236
16653664
18134239
1281819
17579435
16746664
5093028
1253579
17632481
1231601
1279657
1463440
2267527
16506200
1534989
4995810
1261326
3218843
1261326
16801775
17287540
1271934
4832916
16570449
1240594
20412382
18075440
17588164
16641810
5066358
20407193
1231434
1264139
16704886
17703275
1278921
16560021
3402496
5037079
1278963
1283691
17582126
20940861
17620172
17575636
18117096
4830949
20953173
20953174
4829766
1253438
20958031
4833413
1241951
16674504
1242248
5037465
1232081
1268939
20940861
3493113
16554736
17573379
1267167
20958031
1234418
17822964
1263898
17823495
20978955
1273931
16662146
20457757
20981209
4824216
1276111
1282383
1232627
2133783
17095722
1228966
20978699
20978698
20415276
1238191
1245903
18024648
1645955
16717706
16718539
17815834
1231582
20956615


