{
    "LOGSTASH_ID": "1d01eb4a-d01a-4663-a78f-e809b671e41f",
    "REFERER": "\"-\"",
    "ACTIVITY_IP": "1.0.0.0",
    "CID": "17821466",
    "VERSION": "2.0",
    "REF_PARAM": "https%3A%2F%2Fslack.com%2Fsignin&r=1606771046599",
    "USER_AGENT": "\"Mozilla/5.0 (Windows NT 10.0; Win64; x64) AppleWebKit/537.36 (KHTML, like Gecko) Chrome/86.0.4240.198 Safari/537.36\"",
    "ACTIVITY_TYPE_ID": 31,
    "EU_ALLOWED": true,
    "REGION_CD": "US",
    "ACTIVITY_DATE": "2021-03-11",
    "ACTIVITY_MILLIS": 1234567890,
    "DOMAIN": "www.mycoolsite.com",
    "IS_ISP": false,
    "DATE_CREATED": "2021-03-11 12:28:11",
    "DATE_MODIFIED": "2021-03-11 12:28:11",
    "PAGE_TYPE":  "type1",
    "PAGE_TITLE":  "some title",
    "PAGE_TEXT_COUNT":  200,
    "ERRORS": "{\"error1\": \"error1 description\"}"
}
