{
  "subject":"db.ap.client.traffic-value",
  "version":1,
  "id":283,
  "schema": {
    "type":"record",
    "name":"KsqlDataSourceSchema",
    "namespace":"io.confluent.ksql.avro_schemas",
    "fields": [
      {"name":"USER_AGENT", "type":["null","string"], "default":null},
      {"name":"LOGSTASH_ID","type":["null","string"],"default":null},
      {"name":"ACTIVITY_IP","type":["null","string"],"default":null},
      {"name":"REFERER","type":["null","string"],"default":null},
      {"name":"CID","type":["null","string"],"default":null},
      {"name":"VERSION","type":["null","string"],"default":null},
      {"name":"AUTH","type":["null","string"],"default":null},
      {"name":"LAST_VISITED","type":["null","string"],"default":null},
      {"name":"REF_PARAM","type":["null","string"],"default":null},
      {"name":"ACTIVITY_TYPE_ID","type":["null","int"],"default":null},
      {"name":"ACTIVITY_DATE","type":["null","long"],"default":null}
    ]
  }
}
