{
  "rule": "get_value_from_ip",
  "var": "domain",
  "rule_set": "inbound_converter",
  "column": "ACTIVITY_IP",
  "collection": "kickfire",
  "begin_ip_key": "start_ip_int",
  "end_ip_key": "end_ip_int",
  "document_var": "Website"
}
