{
  "LOGSTASH_ID": "33333333-4444-4444-4444-7d94cb80e8ec",
  "REFERER": "https%3A%2F%2Fslack.com%2Fsignin?redir=%2Fhelp%2Ftest",
  "ACTIVITY_IP": "1.0.0.0",
  "ACTIVITY_DATE": "1607557877000",
  "ACTIVITY_TYPE_ID": "31",
  "CID": "17872382",
  "VERSION": "2.0",
  "REF_PARAM": "https://slack.com/signin?redir=/messages/CCJQLCNQZ",
  "USER_AGENT": "Mozilla/5.0 (X11; CrOS aarch64 13421.102.0) AppleWebKit/537.36 (KHTML, like Gecko) Chrome/86.0.4240.199 Safari/537.36"
}
