{
  "config": {
    "rules": [
      {
        "rule": "is_eu_allowed",
        "var": "is_eu_allowed",
        "rule_set": "inbound_converter",
        "is_eu_allowed": [1, 2, 3, 4, 5]
      },
      { "collection": "maxmind", "rule": "get_gdpr_region", "var": "REGION_CD", "rule_set": "inbound_converter" },
      { "rule": "is_gdpr_allowed", "var": "EU_ALLOWED", "rule_set": "inbound_converter", "include_gdpr_regions": ["BK"] },
      { "collection": "kickfire", "rule": "get_external_id", "var": "DOMAIN", "rule_set": "inbound_converter" }
    ],
    "load": {
      "tables": [
        {
          "table_name": "tt-pd-{}.edc_inboundconverter.inbound_converter",
          "columns": [
            "LOGSTASH_ID",
            "ACTIVITY_TYPE_ID",
            "VERSION",
            "CID",
            "REF_PARAM",
            "REFERER",
            "USER_AGENT",
            "REGION_CD",
            "ACTIVITY_DATE",
            "EU_ALLOWED",
            "DOMAIN",
            "ACTIVITY_MILLIS",
            "IS_ISP",
            "DATE_CREATED",
            "DATE_MODIFIED",
            "PAGE_TYPE",
            "PAGE_TITLE",
            "PAGE_TEXT_COUNT",
            "ERRORS"
          ]
        },
        {
          "table_name": "tt-pd-{}.edc_inboundconverter.ip_lookup",
          "columns": ["LOGSTASH_ID", "ACTIVITY_IP"]
        }
      ],
      "rules": [{ "rule": "filter_key", "column": "DOMAIN", "rule_set": "filter_inbound_converter" }]
    },
    "topics": {
      "write_to_bq": "projects/tt-pd-{}/topics/ibc.write-client-activity"
    }
  },
  "output": {
    "LOGSTASH_ID": "1d01eb4a-d01a-4663-a78f-e809b671e41f",
    "REFERER": "\"-\"",
    "ACTIVITY_IP": "1.0.0.0",
    "CID": "17821466",
    "VERSION": "2.0",
    "REF_PARAM": "https%3A%2F%2Fslack.com%2Fsignin&r=1606771046599",
    "USER_AGENT": "\"Mozilla/5.0 (Windows NT 10.0; Win64; x64) AppleWebKit/537.36 (KHTML, like Gecko) Chrome/86.0.4240.198 Safari/537.36\"",
    "ACTIVITY_TYPE_ID": 31,
    "EU_ALLOWED": true,
    "REGION_CD": "US",
    "ACTIVITY_DATE": 1234567890,
    "DOMAIN": "www.mycoolsite.com"
  }
}
