{
  "LOGSTASH_ID": "1d01eb4a-d01a-4663-a78f-e809b671e41f",
  "referrer": "\"-\"",
  "ACTIVITY_IP": "1.0.0.0",
  "CID": "17821466",
  "VERSION": "2.0",
  "REF_PARAM": "https%3A%2F%2Fslack.com%2Fsignin&r=1606771046599",
  "USER_AGENT": "\"Mozilla/5.0 (Windows NT 10.0; Win64; x64) AppleWebKit/537.36 (KHTML, like Gecko) Chrome/86.0.4240.198 Safari/537.36\"",
  "is_eu_allowed": false,
  "EU_ALLOWED": false,
  "event_id": 12345678,
  "DOMAIN": "cloudflare.com",
  "REGION_CD": "AU"
}
