test_donotprocess_cid1
test_donotprocess_cid2
111
17762897
1240444
4989368
5020904
20410269
17054153
1242961
1228465
17674435
20461985
18133588
1231042
1242565
1282300
17579435
17210929
1238076
1935873
20795199
1292330
16507473
5051287
4834444
17560928
1272447
3402496
18010253
17778141
16574367
1251218
1283744
1281116
17632481
16693190
16772270
1265599
1254174
17999131
18116827
1283700
17577284
16613638
16649479
1270942
16506621
5295505
17682573
1258951
3800781
16710995
4837176
1261326
1280887
17063572
14484911
1274543
20406435
1228099
17618234
1267515
16784375
5104795
1239866
17836024
1267348
1257682
18119341
20409682
1274685
17798172
16746664
16703113
17312309
17860274
18150074
17746263
1251435
17578434
1235828
4835433
17826556
17657872
14485108
4826802
18051252
16557700
3185940
1568497
18149785
17704597
16643825
5105709
2724544
17445933
18100910
1232208
1232522
2452328
16605596
17582554
1271028
17643691
18149971
1258640
18028358
1252534
17615311
1262822
1293469
18025240
1274402
1261020
17624318
16510852
20415139
18119183
1273992
16963496
1463440
18024533
1284866
1251947
20791971
16607667
16761431
1263607
1276641
20792093
17846786
16956025
1264139
1231601
1266231
1239602
1641473
17781982
4982495
1257228
18142019
1245928
1232163
17985819
17984077
17560927
1284818
16667160




