[{
	"LOGSTASH_ID": "marina_logstash_id3",
	"REFERER": "https://blog.zoom.us/",
	"ACTIVITY_IP": "1.0.0.0",
	"ACTIVITY_DATE": "2021-03-16",
	"ACTIVITY_TYPE_ID": "31",
	"CID": "17872382",
	"VERSION": "2.0",
	"REF_PARAM": "https://www.yahoo.com",
	"USER_AGENT": "Mozilla/5.0 (X11; CrOS aarch64 13421.102.0) AppleWebKit/537.36 (KHTML, like Gecko)Chrome/86.0.4240.199 Safari/537.36",
	"REGION_CD": "code1",
	"IS_ISP": false,
	"EU_ALLOWED": true,
	"ACTIVITY_MILLIS": 1607557877000,
	"DOMAIN": "yahoo.com",
  	"PAGE_TEXT_COUNT": 167,
  	"PAGE_TITLE": "Yahoo",
	"PAGE_TYPE": "type1",
	"DATE_CREATED": "2021-03-26 10:00:22",
	"DATE_MODIFIED": "2021-03-26 10:00:22",
  	"event_id": 12345678
}]
